…
    set.seed(123)

    plot_df <- tibble(
      a = cumsum(runif(100, -1, 1)),
      b = cumsum(runif(100, -1.5, 1.5)),
      c = cumsum(runif(100, -2, 2)),
      d = cumsum(runif(100, -2.5, 2.5))
    ) %>% pivot_longer(a:d) %>%
      group_by(name) %>%
      mutate(reveal_time = row_number(), x = row_number()) %>%
      ungroup()

    plot_df

    ## # A tibble: 400 x 4
    ##    name    value reveal_time     x
    ##    <chr>   <dbl>       <int> <int>
    ##  1 a     -0.425            1     1
    ##  2 b      0.300            1     1
    ##  3 c     -1.05             1     1
    ##  4 d      1.42             1     1
    ##  5 a      0.152            2     2
    ##  6 b     -0.202            2     2
    ##  7 c      0.804            2     2
    ##  8 d     -1.03             2     2
    ##  9 a     -0.0303           3     3
    ## 10 b     -0.236            3     3
    ## # ... with 390 more rows
…
